{
  "hosting": {
    "site":"soappy",
    "public": "www",
    "ignore": [
      "firebase.json",
      "**/.*",
      "**/node_modules/**"
    ],
    "rewrites": [
      {
        "source": "**",
        "destination": "/index.html"
      }
    ],
    "headers": [
      {
        "source": "/service-worker.js",
        "headers": [
          {
            "key": "Cache-Control",
            "value": "no-cache"
          },
          {
            "source": "**",
            "headers": [
              {
                "key": "Cache-Control",
                "value": "max-age=3600"
              }
            ]
          },
          {
            "source": "**/*.@(jpg|jpeg|gif|png)",
            "headers": [
              {
                "key": "Cache-Control",
                "value": "max-age=3600"
              }
            ]
          },
          {
            "source": "**/*.@(css|js)",
            "headers": [
              {
                "key": "Cache-Control",
                "value": "max-age=3600"
              }
            ]
          }
        ]
      }
    ]
  }
}
